   9
sisl-version=1 cell= 4.91362818 0.00000000 0.00000000 -2.45681409 4.25911676 0.00000000 0.00000000 0.00000000 40.51491471  nsc= 1 1 1
C   1.22840736  0.70977860  20.00071756
C   -0.00000027  1.41977978  20.00071756
C   0.00000028  2.83933736  20.00071756
C   -1.22840735  3.54933782  20.00071756
C   3.68522104  0.70977840  20.00071756
C   2.45681414  1.41978001  20.00071756
C   2.45681403  2.83933711  20.00071756
C   1.22840713  3.54933801  20.00071756
H   -0.00000027  1.41977978  21.00071756

